[
  {
    "image_name": "https://images.unsplash.com/photo-1525351484163-7529414344d8?ixid=MXwxMjA3fDB8MHxzZWFyY2h8N3x8YnJlYWtmYXN0fGVufDB8fDB8&ixlib=rb-1.2.1&w=1000&q=80",
    "description": "this is an example 01",
    "show_detail": true,
    "like": true,
    "estimated_time": 10,
    "popularity": 1999,
    "recommendations": 60
  },
  {
    "image_name": "https://imagesvc.meredithcorp.io/v3/mm/image?url=https%3A%2F%2Fstatic.onecms.io%2Fwp-content%2Fuploads%2Fsites%2F19%2F2020%2F10%2F08%2Fblueberry-pancake-1255787230-2000.jpg",
    "description": "this is an example 02",
    "show_detail": true,
    "estimated_time": 100
  },
  {
    "image_name": "https://imagesvc.meredithcorp.io/v3/mm/image?url=https%3A%2F%2Fstatic.onecms.io%2Fwp-content%2Fuploads%2Fsites%2F23%2F2005%2F04%2F11%2Fbest-healthy-breakfast-tout-1.jpg",
    "description": "this is an example 02",
    "show_detail": false,
    "like": true
  }
]